Project 1
…
# Ensure numeric types
df_final <- df_final %>%
  mutate(
    pair_num = as.integer(pair_num),
    rating_pre = as.integer(rating_pre)
  )
print(df_final)

# A tibble: 64 × 12
   pair_num player_name      total_pts round1 round2 round3 round4 round5 round6
      <int> <chr>            <chr>     <chr>  <chr>  <chr>  <chr>  <chr>  <chr> 
 1        1 GARY HUA         6.0       W  39  W  21  W  18  W  14  W   7  D  12 
 2        2 DAKSHESH DARURI  6.0       W  63  W  58  L   4  W  17  W  16  W  20 
 3        3 ADITYA BAJAJ     6.0       L   8  W  61  W  25  W  21  W  11  W  13 
 4        4 PATRICK H SCHIL… 5.5       W  23  D  28  W   2  W  26  D   5  W  19 
 5        5 HANSHI ZUO       5.5       W  45  W  37  D  12  D  13  D   4  W  14 
 6        6 HANSEN SONG      5.0       W  34  D  29  L  11  W  35  D  10  W  27 
 7        7 GARY DEE SWATHE… 5.0       W  57  W  46  W  13  W  11  L   1  W   9 
 8        8 EZEKIEL HOUGHTON 5.0       W   3  W  32  L  14  L   9  W  47  W  28 
 9        9 STEFANO LEE      5.0       W  25  L  18  W  59  W   8  W  26  L   7 
10       10 ANVIT RAO        5.0       D  16  L  19  W  55  W  31  D   6  W  25 
# ℹ 54 more rows
# ℹ 3 more variables: round7 <chr>, state <chr>, rating_pre <int>

# Create lookup table for opponent ratings
rating_lookup <- df_final %>%
  select(pair_num, rating_pre) %>%
  rename(opponent_rating = rating_pre)

print(rating_lookup)

# A tibble: 64 × 2
   pair_num opponent_rating
      <int>           <int>
 1        1            1794
 2        2            1553
 3        3            1384
 4        4            1716
 5        5            1655
 6        6            1686
 7        7            1649
 8        8            1641
 9        9            1411
10       10            1365
# ℹ 54 more rows

# Pivot longer for rounds
df_long <- df_final %>%
  pivot_longer(
    cols = starts_with("round"),
    names_to = "round",
    values_to = "result"
  )

print(df_long)

# A tibble: 448 × 7
   pair_num player_name     total_pts state rating_pre round  result
      <int> <chr>           <chr>     <chr>      <int> <chr>  <chr> 
 1        1 GARY HUA        6.0       ON          1794 round1 W  39 
 2        1 GARY HUA        6.0       ON          1794 round2 W  21 
 3        1 GARY HUA        6.0       ON          1794 round3 W  18 
 4        1 GARY HUA        6.0       ON          1794 round4 W  14 
 5        1 GARY HUA        6.0       ON          1794 round5 W   7 
 6        1 GARY HUA        6.0       ON          1794 round6 D  12 
 7        1 GARY HUA        6.0       ON          1794 round7 D   4 
 8        2 DAKSHESH DARURI 6.0       MI          1553 round1 W  63 
 9        2 DAKSHESH DARURI 6.0       MI          1553 round2 W  58 
10        2 DAKSHESH DARURI 6.0       MI          1553 round3 L   4 
# ℹ 438 more rows

df_long <- df_long %>%
  mutate(
    result_type = str_extract(result, "^[WLDHBUX]"),
    opponent = as.integer(str_extract(result, "\\d+"))
  ) %>%
  filter(!is.na(result_type), !is.na(opponent)) %>%
  left_join(rating_lookup, by = c("opponent" = "pair_num"))

df_long

# A tibble: 408 × 10
   pair_num player_name     total_pts state rating_pre round  result result_type
      <int> <chr>           <chr>     <chr>      <int> <chr>  <chr>  <chr>      
 1        1 GARY HUA        6.0       ON          1794 round1 W  39  W          
 2        1 GARY HUA        6.0       ON          1794 round2 W  21  W          
 3        1 GARY HUA        6.0       ON          1794 round3 W  18  W          
 4        1 GARY HUA        6.0       ON          1794 round4 W  14  W          
 5        1 GARY HUA        6.0       ON          1794 round5 W   7  W          
 6        1 GARY HUA        6.0       ON          1794 round6 D  12  D          
 7        1 GARY HUA        6.0       ON          1794 round7 D   4  D          
 8        2 DAKSHESH DARURI 6.0       MI          1553 round1 W  63  W          
 9        2 DAKSHESH DARURI 6.0       MI          1553 round2 W  58  W          
10        2 DAKSHESH DARURI 6.0       MI          1553 round3 L   4  L          
# ℹ 398 more rows
# ℹ 2 more variables: opponent <int>, opponent_rating <int>

# Compute average opponent rating per player
opp_avg <- df_long %>%
  group_by(pair_num) %>%
  summarise(
    Avg_opponent_rating = round(mean(opponent_rating, na.rm = TRUE)),
    .groups = "drop"
  )
print(opp_avg)

# A tibble: 64 × 2
   pair_num Avg_opponent_rating
      <int>               <dbl>
 1        1                1605
 2        2                1469
 3        3                1564
 4        4                1574
 5        5                1501
 6        6                1519
 7        7                1372
 8        8                1468
 9        9                1523
10       10                1554
# ℹ 54 more rows
…
